
.Version 8.11.12 of ABINIT 
.(MPI version, prepared for a x86_64_darwin17.7.0_gnu9.2 computer) 

.Copyright (C) 1998-2019 ABINIT group . 
 ABINIT comes with ABSOLUTELY NO WARRANTY.
 It is free software, and you are welcome to redistribute it
 under certain conditions (GNU General Public License,
 see ~abinit/COPYING or http://www.gnu.org/copyleft/gpl.txt).

 ABINIT is a project of the Universite Catholique de Louvain,
 Corning Inc. and other collaborators, see ~abinit/doc/developers/contributors.txt .
 Please read https://docs.abinit.org/theory/acknowledgments for suggested
 acknowledgments of the ABINIT effort.
 For more information, see https://www.abinit.org .

.Starting date : Fri 22 Nov 2019.
- ( at 17h08 )
  
- input  file    -> /Users/fgoudreault/Workspace/abisuite/abisuite/unittests/files/abinit_AlAs/phonons/ph4/ph4.in
- output file    -> /Users/fgoudreault/Workspace/abisuite/abisuite/unittests/files/abinit_AlAs/phonons/ph4/ph4.out
- root for input  files -> /Users/fgoudreault/Workspace/abisuite/abisuite/unittests/files/abinit_AlAs/phonons/ph4/input_data/idat_ph4
- root for output files -> /Users/fgoudreault/Workspace/abisuite/abisuite/unittests/files/abinit_AlAs/phonons/ph4/run/output_data/odat_ph4


 Symmetries : space group F-4 3 m (#216); Bravais cF (face-center cubic)
================================================================================
 Values of the parameters that define the memory need of the present run (RF).
     intxc =       0      iscf =       7    lmnmax =       3     lnmax =       3
     mgfft =      12  mpssoang =       3    mqgrid =    3001     natom =       2
  nloc_mem =       1    nspden =       1   nspinor =       1    nsppol =       1
      nsym =      24    n1xccc =    2501    ntypat =       2    occopt =       1
   xclevel =       1
-    mband =           4        mffmem =           1         mkmem =          64
-   mkqmem =          64        mk1mem =          64           mpw =          77
      nfft =        1728          nkpt =         256
================================================================================
P This job should need less than                       2.513 Mbytes of memory.
  Rough estimation (10% accuracy) of disk space for files :
_ WF disk file :      1.205 Mbytes ; DEN or POT disk file :      0.015 Mbytes.
================================================================================

--------------------------------------------------------------------------------
------------- Echo of variables that govern the present computation ------------
--------------------------------------------------------------------------------
-
- outvars: echo of selected default values                                      
-   iomode0 =  0 , fftalg0 =112 , wfoptalg0 =  0
-
- outvars: echo of global parameters not present in the input file              
-  max_nthreads =    0
-
 -outvars: echo values of preprocessed input variables --------
            acell      1.0610000000E+01  1.0610000000E+01  1.0610000000E+01 Bohr
              amu      2.69815390E+01  7.49215900E+01
           diemac      9.00000000E+00
             ecut      3.00000000E+00 Hartree
-          fftalg         112
           irdwfk           1
              kpt     -1.25000000E-01 -2.50000000E-01  0.00000000E+00
                      -2.50000000E-01 -1.25000000E-01  0.00000000E+00
                      -1.25000000E-01 -1.25000000E-01  1.25000000E-01
                      -1.25000000E-01  5.00000000E-01  0.00000000E+00
                      -2.50000000E-01 -3.75000000E-01  0.00000000E+00
                      -1.25000000E-01 -3.75000000E-01  1.25000000E-01
                      -3.75000000E-01 -2.50000000E-01  0.00000000E+00
                      -2.50000000E-01 -2.50000000E-01  1.25000000E-01
                      -1.25000000E-01 -2.50000000E-01  2.50000000E-01
                       5.00000000E-01 -1.25000000E-01  0.00000000E+00
                      -3.75000000E-01 -1.25000000E-01  1.25000000E-01
                      -2.50000000E-01 -1.25000000E-01  2.50000000E-01
                      -1.25000000E-01 -1.25000000E-01  3.75000000E-01
                      -1.25000000E-01  2.50000000E-01  0.00000000E+00
                      -2.50000000E-01  3.75000000E-01  0.00000000E+00
                      -1.25000000E-01  3.75000000E-01  1.25000000E-01
                      -3.75000000E-01  5.00000000E-01  0.00000000E+00
                      -2.50000000E-01  5.00000000E-01  1.25000000E-01
                      -1.25000000E-01  5.00000000E-01  2.50000000E-01
                       5.00000000E-01 -3.75000000E-01  0.00000000E+00
                      -3.75000000E-01 -3.75000000E-01  1.25000000E-01
                      -2.50000000E-01 -3.75000000E-01  2.50000000E-01
                      -1.25000000E-01 -3.75000000E-01  3.75000000E-01
                       3.75000000E-01 -2.50000000E-01  0.00000000E+00
                       5.00000000E-01 -2.50000000E-01  1.25000000E-01
                      -3.75000000E-01 -2.50000000E-01  2.50000000E-01
                      -2.50000000E-01 -2.50000000E-01  3.75000000E-01
                      -1.25000000E-01 -2.50000000E-01  5.00000000E-01
                       2.50000000E-01 -1.25000000E-01  0.00000000E+00
                       3.75000000E-01 -1.25000000E-01  1.25000000E-01
                       5.00000000E-01 -1.25000000E-01  2.50000000E-01
                      -3.75000000E-01 -1.25000000E-01  3.75000000E-01
                      -2.50000000E-01 -1.25000000E-01  5.00000000E-01
                      -1.25000000E-01 -1.25000000E-01 -3.75000000E-01
                      -1.25000000E-01  0.00000000E+00  0.00000000E+00
                      -2.50000000E-01  1.25000000E-01  0.00000000E+00
                      -1.25000000E-01  1.25000000E-01  1.25000000E-01
                      -3.75000000E-01  2.50000000E-01  0.00000000E+00
                      -2.50000000E-01  2.50000000E-01  1.25000000E-01
                      -1.25000000E-01  2.50000000E-01  2.50000000E-01
                       5.00000000E-01  3.75000000E-01  0.00000000E+00
                      -3.75000000E-01  3.75000000E-01  1.25000000E-01
                      -2.50000000E-01  3.75000000E-01  2.50000000E-01
                      -1.25000000E-01  3.75000000E-01  3.75000000E-01
                       3.75000000E-01  5.00000000E-01  0.00000000E+00
                       5.00000000E-01  5.00000000E-01  1.25000000E-01
                      -3.75000000E-01  5.00000000E-01  2.50000000E-01
                      -2.50000000E-01  5.00000000E-01  3.75000000E-01
                      -1.25000000E-01  5.00000000E-01  5.00000000E-01
                       2.50000000E-01 -3.75000000E-01  0.00000000E+00
                       outvar_i_n : Printing only first  50 k-points.
           kptopt           3
         kptrlatt        4   -4    4     -4    4    4     -4   -4    4
          kptrlen      4.24400000E+01
P           mkmem          64
P          mkqmem          64
P          mk1mem          64
            natom           2
            nband           4
            ngfft          12      12      12
             nkpt         256
             nqpt           1
            nstep          25
             nsym          24
           ntypat           2
              occ      2.000000  2.000000  2.000000  2.000000
        optdriver           1
              qpt      5.00000000E-01  2.50000000E-01  0.00000000E+00
          rfatpol           1       2
            rfdir           1       1       1
           rfphon           1
            rprim      0.0000000000E+00  5.0000000000E-01  5.0000000000E-01
                       5.0000000000E-01  0.0000000000E+00  5.0000000000E-01
                       5.0000000000E-01  5.0000000000E-01  0.0000000000E+00
           shiftk      5.00000000E-01  5.00000000E-01  5.00000000E-01
          spgroup         216
           symrel      1  0  0   0  1  0   0  0  1       0 -1  1   0 -1  0   1 -1  0
                      -1  0  0  -1  0  1  -1  1  0       0  1 -1   1  0 -1   0  0 -1
                      -1  0  0  -1  1  0  -1  0  1       0 -1  1   1 -1  0   0 -1  0
                       1  0  0   0  0  1   0  1  0       0  1 -1   0  0 -1   1  0 -1
                      -1  0  1  -1  1  0  -1  0  0       0 -1  0   1 -1  0   0 -1  1
                       1  0 -1   0  0 -1   0  1 -1       0  1  0   0  0  1   1  0  0
                       1  0 -1   0  1 -1   0  0 -1       0 -1  0   0 -1  1   1 -1  0
                      -1  0  1  -1  0  0  -1  1  0       0  1  0   1  0  0   0  0  1
                       0  0 -1   0  1 -1   1  0 -1       1 -1  0   0 -1  1   0 -1  0
                       0  0  1   1  0  0   0  1  0      -1  1  0  -1  0  0  -1  0  1
                       0  0  1   0  1  0   1  0  0       1 -1  0   0 -1  0   0 -1  1
                       0  0 -1   1  0 -1   0  1 -1      -1  1  0  -1  0  1  -1  0  0
           tolvrs      1.00000000E-08
            typat      1  2
              wtk        0.00391    0.00391    0.00391    0.00391    0.00391    0.00391
                         0.00391    0.00391    0.00391    0.00391    0.00391    0.00391
                         0.00391    0.00391    0.00391    0.00391    0.00391    0.00391
                         0.00391    0.00391    0.00391    0.00391    0.00391    0.00391
                         0.00391    0.00391    0.00391    0.00391    0.00391    0.00391
                         0.00391    0.00391    0.00391    0.00391    0.00391    0.00391
                         0.00391    0.00391    0.00391    0.00391    0.00391    0.00391
                         0.00391    0.00391    0.00391    0.00391    0.00391    0.00391
                         0.00391    0.00391
                       outvars : Printing only first  50 k-points.
           xangst      0.0000000000E+00  0.0000000000E+00  0.0000000000E+00
                       1.4036425458E+00  1.4036425458E+00  1.4036425458E+00
            xcart      0.0000000000E+00  0.0000000000E+00  0.0000000000E+00
                       2.6525000000E+00  2.6525000000E+00  2.6525000000E+00
             xred      0.0000000000E+00  0.0000000000E+00  0.0000000000E+00
                       2.5000000000E-01  2.5000000000E-01  2.5000000000E-01
            znucl       13.00000   33.00000

================================================================================

 chkinp: Checking input parameters for consistency.

================================================================================
== DATASET  1 ==================================================================
-   nproc =    4

 Exchange-correlation functional for the present dataset will be:
  LDA: new Teter (4/93) with spin-polarized option - ixc=1
 Citation for XC functional:
  S. Goedecker, M. Teter, J. Huetter, PRB 54, 1703 (1996)

 Real(R)+Recip(G) space primitive vectors, cartesian coordinates (Bohr,Bohr^-1):
 R(1)=  0.0000000  5.3050000  5.3050000  G(1)= -0.0942507  0.0942507  0.0942507
 R(2)=  5.3050000  0.0000000  5.3050000  G(2)=  0.0942507 -0.0942507  0.0942507
 R(3)=  5.3050000  5.3050000  0.0000000  G(3)=  0.0942507  0.0942507 -0.0942507
 Unit cell volume ucvol=  2.9859750E+02 bohr^3
 Angles (23,13,12)=  6.00000000E+01  6.00000000E+01  6.00000000E+01 degrees
 setup1 : take into account q-point for computing boxcut.

 getcut: wavevector=  0.5000  0.2500  0.0000  ngfft=  12  12  12
         ecut(hartree)=      3.000   => boxcut(ratio)=   1.88338

--- Pseudopotential description ------------------------------------------------
- pspini: atom type   1  psp file is /Users/fgoudreault/Workspace/abisuite/abisuite/unittests/files/pseudos/13al.981214.fhi
- pspatm: opening atomic psp file    /Users/fgoudreault/Workspace/abisuite/abisuite/unittests/files/pseudos/13al.981214.fhi
- Aluminum, fhi98PP : Hamann-type, LDA CA PerdewWang, l=2 local
- 13.00000   3.00000    981214                znucl, zion, pspdat
    6    7    2    2       493   0.00000      pspcod,pspxc,lmax,lloc,mmax,r2well
  No XC core correction.
  1.024700          amesh (Hamman grid)
  pspatm : epsatm=    1.36305739
         --- l  ekb(1:nproj) -->
             0    1.768744
             1    0.900554
 pspatm: atomic psp has been read  and splines computed

- pspini: atom type   2  psp file is /Users/fgoudreault/Workspace/abisuite/abisuite/unittests/files/pseudos/33as.pspnc
- pspatm: opening atomic psp file    /Users/fgoudreault/Workspace/abisuite/abisuite/unittests/files/pseudos/33as.pspnc
-  Troullier-Martins psp for element  As        Thu Oct 27 17:37:14 EDT 1994
- 33.00000   5.00000    940714                znucl, zion, pspdat
    1    1    1    1      2001   0.00000      pspcod,pspxc,lmax,lloc,mmax,r2well
    0   4.772  10.829    1   2.5306160        l,e99.0,e99.9,nproj,rcpsp
   0.00000000   0.00000000   0.00000000   0.00000000     rms, ekb1, ekb2, epsatm
    1   2.745   5.580    0   2.5306160        l,e99.0,e99.9,nproj,rcpsp
   0.00000000   0.00000000   0.00000000   0.00000000     rms, ekb1, ekb2, epsatm
    2.05731715564010    0.36322996461007    2.76014815959125   rchrg,fchrg,qchrg
  pspatm : epsatm=   27.20579911
         --- l  ekb(1:nproj) -->
             0    0.838751
 pspatm: atomic psp has been read  and splines computed

   2.28550852E+02                                ecore*ucvol(ha*bohr**3)
--------------------------------------------------------------------------------

-inwffil : will read wavefunctions from disk file /Users/fgoudreault/Workspace/abisuite/abisuite/unittests/files/abinit_AlAs/phonons/ph4/input_data/idat_ph4_WFK

 ==>  initialize data related to q vector <== 

 The list of irreducible perturbations for this q vector is:
    1)    idir= 1    ipert=   1
    2)    idir= 2    ipert=   1
    3)    idir= 3    ipert=   1
    4)    idir= 1    ipert=   2
    5)    idir= 2    ipert=   2
    6)    idir= 3    ipert=   2

================================================================================

--------------------------------------------------------------------------------
 Perturbation wavevector (in red.coord.)   0.500000  0.250000  0.000000
 Perturbation : displacement of atom   1   along direction   1
 The set of symmetries contains only one element for this perturbation.
 symkpt : not enough symmetry to change the number of k points.

--------------------------------------------------------------------------------

-inwffil : will read wavefunctions from disk file /Users/fgoudreault/Workspace/abisuite/abisuite/unittests/files/abinit_AlAs/phonons/ph4/input_data/idat_ph4_WFK
--------------------------------------------------------------------------------

-inwffil : will read wavefunctions from disk file /Users/fgoudreault/Workspace/abisuite/abisuite/unittests/files/abinit_AlAs/phonons/ph4/input_data/idat_ph4_WFK
 Initialisation of the first-order wave-functions :
  ireadwf=   0

     iter   2DEtotal(Ha)        deltaE(Ha) residm    vres2
-ETOT  1   75.494374535863      4.300E+01 9.294E-02 2.325E+04
 ETOT  2   9.8420277513081     -6.565E+01 5.281E-02 8.211E+02
 ETOT  3   5.9631317449003     -3.879E+00 2.242E-03 7.722E+01
 ETOT  4   5.7650157255369     -1.981E-01 1.374E-04 1.117E+00
 ETOT  5   5.7620096692890     -3.006E-03 1.961E-06 1.692E-02
 ETOT  6   5.7619536468411     -5.602E-05 4.505E-08 4.979E-04
 ETOT  7   5.7619514784777     -2.168E-06 1.705E-09 1.754E-05
 ETOT  8   5.7619514211078     -5.737E-08 4.147E-11 3.618E-07
 ETOT  9   5.7619514198749     -1.233E-09 9.110E-13 1.545E-08
 ETOT 10   5.7619514198236     -5.134E-11 3.513E-14 1.073E-09

 At SCF step   10       vres2   =  1.07E-09 < tolvrs=  1.00E-08 =>converged.
================================================================================

 ----iterations are completed or convergence reached----

 Mean square residual over all n,k,spin=   10.666E-15; max=  35.127E-15

 Thirteen components of 2nd-order total energy (hartree) are
 1,2,3: 0th-order hamiltonian combined with 1st-order wavefunctions
     kin0=   2.42414265E+01 eigvalue=   4.24202797E-01  local=  -1.49193023E+01
 4,5,6: 1st-order hamiltonian combined with 1st and 0th-order wfs
 loc psp =  -3.68037213E+01  Hartree=   1.26235156E+01     xc=  -2.25291746E+00
 note that "loc psp" includes a xc core correction that could be resolved
 7,8,9: eventually, occupation + non-local contributions
    edocc=   0.00000000E+00     enl0=   6.61936921E+00   enl1=  -1.66688643E+01
 1-9 gives the relaxation energy (to be shifted if some occ is /=2.0)
   erelax=  -2.67362913E+01
 10,11,12 Non-relaxation  contributions : frozen-wavefunctions and Ewald
 fr.local=  -6.53124858E+00 fr.nonlo=   1.58440582E+01  Ewald=   2.31854330E+01
 13,14 Frozen wf xc core corrections (1) and (2)
 frxc 1  =   0.00000000E+00  frxc 2 =   0.00000000E+00
 Resulting in :
 2DEtotal=    0.5761951420E+01 Ha. Also 2DEtotal=    0.156790671867E+03 eV
    (2DErelax=   -2.6736291266E+01 Ha. 2DEnonrelax=    3.2498242686E+01 Ha)
    (  non-var. 2DEtotal :    5.7619498719E+00 Ha)


--------------------------------------------------------------------------------
 Perturbation wavevector (in red.coord.)   0.500000  0.250000  0.000000
 Perturbation : displacement of atom   1   along direction   2
 The set of symmetries contains only one element for this perturbation.
 symkpt : not enough symmetry to change the number of k points.

--------------------------------------------------------------------------------

-inwffil : will read wavefunctions from disk file /Users/fgoudreault/Workspace/abisuite/abisuite/unittests/files/abinit_AlAs/phonons/ph4/input_data/idat_ph4_WFK
--------------------------------------------------------------------------------

-inwffil : will read wavefunctions from disk file /Users/fgoudreault/Workspace/abisuite/abisuite/unittests/files/abinit_AlAs/phonons/ph4/input_data/idat_ph4_WFK
 Initialisation of the first-order wave-functions :
  ireadwf=   0

     iter   2DEtotal(Ha)        deltaE(Ha) residm    vres2
-ETOT  1   25.401070792299     -7.995E-01 4.037E-02 5.754E+03
 ETOT  2   6.0280552973261     -1.937E+01 1.323E-02 1.050E+02
 ETOT  3   5.3644441959569     -6.636E-01 5.537E-04 2.241E+01
 ETOT  4   5.3049620558039     -5.948E-02 3.513E-05 2.540E-01
 ETOT  5   5.3040336041620     -9.285E-04 5.711E-07 1.586E-02
 ETOT  6   5.3039888464913     -4.476E-05 3.633E-08 3.459E-04
 ETOT  7   5.3039875032692     -1.343E-06 8.898E-10 2.014E-05
 ETOT  8   5.3039874384433     -6.483E-08 3.636E-11 1.282E-07
 ETOT  9   5.3039874379797     -4.636E-10 4.250E-13 4.608E-09

 At SCF step    9       vres2   =  4.61E-09 < tolvrs=  1.00E-08 =>converged.
================================================================================

 ----iterations are completed or convergence reached----

 Mean square residual over all n,k,spin=   11.660E-14; max=  42.500E-14

 Thirteen components of 2nd-order total energy (hartree) are
 1,2,3: 0th-order hamiltonian combined with 1st-order wavefunctions
     kin0=   2.21737302E+01 eigvalue=   4.51619198E-01  local=  -1.32239792E+01
 4,5,6: 1st-order hamiltonian combined with 1st and 0th-order wfs
 loc psp =  -2.56440155E+01  Hartree=   7.54163715E+00     xc=  -2.01507380E+00
 note that "loc psp" includes a xc core correction that could be resolved
 7,8,9: eventually, occupation + non-local contributions
    edocc=   0.00000000E+00     enl0=   5.96864062E+00   enl1=  -1.61491332E+01
 1-9 gives the relaxation energy (to be shifted if some occ is /=2.0)
   erelax=  -2.08965746E+01
 10,11,12 Non-relaxation  contributions : frozen-wavefunctions and Ewald
 fr.local=  -6.53124858E+00 fr.nonlo=   1.58440582E+01  Ewald=   1.68877524E+01
 13,14 Frozen wf xc core corrections (1) and (2)
 frxc 1  =   0.00000000E+00  frxc 2 =   0.00000000E+00
 Resulting in :
 2DEtotal=    0.5303987438E+01 Ha. Also 2DEtotal=    0.144328838163E+03 eV
    (2DErelax=   -2.0896574575E+01 Ha. 2DEnonrelax=    2.6200562013E+01 Ha)
    (  non-var. 2DEtotal :    5.3039876335E+00 Ha)


--------------------------------------------------------------------------------
 Perturbation wavevector (in red.coord.)   0.500000  0.250000  0.000000
 Perturbation : displacement of atom   1   along direction   3
 The set of symmetries contains only one element for this perturbation.
 symkpt : not enough symmetry to change the number of k points.

--------------------------------------------------------------------------------

-inwffil : will read wavefunctions from disk file /Users/fgoudreault/Workspace/abisuite/abisuite/unittests/files/abinit_AlAs/phonons/ph4/input_data/idat_ph4_WFK
--------------------------------------------------------------------------------

-inwffil : will read wavefunctions from disk file /Users/fgoudreault/Workspace/abisuite/abisuite/unittests/files/abinit_AlAs/phonons/ph4/input_data/idat_ph4_WFK
 Initialisation of the first-order wave-functions :
  ireadwf=   0

     iter   2DEtotal(Ha)        deltaE(Ha) residm    vres2
-ETOT  1   12.187888960227     -1.116E+01 2.697E-02 1.059E+03
 ETOT  2   4.5839270856326     -7.604E+00 4.999E-03 1.491E+01
 ETOT  3   4.4357346587068     -1.482E-01 1.169E-04 4.298E-01
 ETOT  4   4.4336217949625     -2.113E-03 1.532E-06 7.936E-03
 ETOT  5   4.4335934218949     -2.837E-05 4.408E-08 3.806E-05
 ETOT  6   4.4335932875310     -1.344E-07 1.291E-10 4.308E-07
 ETOT  7   4.4335932860360     -1.495E-09 1.715E-12 5.422E-08
 ETOT  8   4.4335932858198     -2.162E-10 1.229E-13 4.643E-10

 At SCF step    8       vres2   =  4.64E-10 < tolvrs=  1.00E-08 =>converged.
================================================================================

 ----iterations are completed or convergence reached----

 Mean square residual over all n,k,spin=   29.444E-15; max=  12.286E-14

 Thirteen components of 2nd-order total energy (hartree) are
 1,2,3: 0th-order hamiltonian combined with 1st-order wavefunctions
     kin0=   2.11712293E+01 eigvalue=   4.45497932E-01  local=  -1.17515776E+01
 4,5,6: 1st-order hamiltonian combined with 1st and 0th-order wfs
 loc psp =  -2.34906059E+01  Hartree=   6.17597197E+00     xc=  -2.05894761E+00
 note that "loc psp" includes a xc core correction that could be resolved
 7,8,9: eventually, occupation + non-local contributions
    edocc=   0.00000000E+00     enl0=   4.92732073E+00   enl1=  -1.43283847E+01
 1-9 gives the relaxation energy (to be shifted if some occ is /=2.0)
   erelax=  -1.89094960E+01
 10,11,12 Non-relaxation  contributions : frozen-wavefunctions and Ewald
 fr.local=  -6.53124858E+00 fr.nonlo=   1.58440582E+01  Ewald=   1.40302796E+01
 13,14 Frozen wf xc core corrections (1) and (2)
 frxc 1  =   0.00000000E+00  frxc 2 =   0.00000000E+00
 Resulting in :
 2DEtotal=    0.4433593286E+01 Ha. Also 2DEtotal=    0.120644208780E+03 eV
    (2DErelax=   -1.8909495999E+01 Ha. 2DEnonrelax=    2.3343089285E+01 Ha)
    (  non-var. 2DEtotal :    4.4335939680E+00 Ha)


--------------------------------------------------------------------------------
 Perturbation wavevector (in red.coord.)   0.500000  0.250000  0.000000
 Perturbation : displacement of atom   2   along direction   1
 The set of symmetries contains only one element for this perturbation.
 symkpt : not enough symmetry to change the number of k points.

--------------------------------------------------------------------------------

-inwffil : will read wavefunctions from disk file /Users/fgoudreault/Workspace/abisuite/abisuite/unittests/files/abinit_AlAs/phonons/ph4/input_data/idat_ph4_WFK
--------------------------------------------------------------------------------

-inwffil : will read wavefunctions from disk file /Users/fgoudreault/Workspace/abisuite/abisuite/unittests/files/abinit_AlAs/phonons/ph4/input_data/idat_ph4_WFK
 Initialisation of the first-order wave-functions :
  ireadwf=   0

     iter   2DEtotal(Ha)        deltaE(Ha) residm    vres2
-ETOT  1   441.54505568630      3.262E+02 3.555E-01 1.346E+05
 ETOT  2   37.104878338536     -4.044E+02 2.823E-01 7.738E+03
 ETOT  3   6.4646706534398     -3.064E+01 1.311E-02 1.242E+02
 ETOT  4   6.1551664947376     -3.095E-01 1.651E-04 4.355E+00
 ETOT  5   6.1416462416436     -1.352E-02 7.760E-06 7.750E-02
 ETOT  6   6.1413900708790     -2.562E-04 1.305E-07 8.791E-04
 ETOT  7   6.1413859084393     -4.162E-06 2.695E-09 4.175E-05
 ETOT  8   6.1413857609465     -1.475E-07 8.604E-11 1.147E-06
 ETOT  9   6.1413857573990     -3.547E-09 2.515E-12 1.810E-08
 ETOT 10   6.1413857573251     -7.398E-11 5.657E-14 1.218E-09

 At SCF step   10       vres2   =  1.22E-09 < tolvrs=  1.00E-08 =>converged.
================================================================================

 ----iterations are completed or convergence reached----

 Mean square residual over all n,k,spin=   16.269E-15; max=  56.566E-15

 Thirteen components of 2nd-order total energy (hartree) are
 1,2,3: 0th-order hamiltonian combined with 1st-order wavefunctions
     kin0=   8.93731391E+01 eigvalue=   5.49485166E-01  local=  -4.49267842E+01
 4,5,6: 1st-order hamiltonian combined with 1st and 0th-order wfs
 loc psp =  -1.95376710E+02  Hartree=   6.72225112E+01     xc=  -1.05597500E+01
 note that "loc psp" includes a xc core correction that could be resolved
 7,8,9: eventually, occupation + non-local contributions
    edocc=   0.00000000E+00     enl0=   7.52416592E+00   enl1=  -2.29888261E+01
 1-9 gives the relaxation energy (to be shifted if some occ is /=2.0)
   erelax=  -1.09182769E+02
 10,11,12 Non-relaxation  contributions : frozen-wavefunctions and Ewald
 fr.local=   5.64891219E+01 fr.nonlo=   1.26903395E+01  Ewald=   4.33481706E+01
 13,14 Frozen wf xc core corrections (1) and (2)
 frxc 1  =  -1.87424076E+01  frxc 2 =   2.15389302E+01
 Resulting in :
 2DEtotal=    0.6141385757E+01 Ha. Also 2DEtotal=    0.167115605275E+03 eV
    (2DErelax=   -1.0918276896E+02 Ha. 2DEnonrelax=    1.1532415471E+02 Ha)
    (  non-var. 2DEtotal :    6.1413866532E+00 Ha)


--------------------------------------------------------------------------------
 Perturbation wavevector (in red.coord.)   0.500000  0.250000  0.000000
 Perturbation : displacement of atom   2   along direction   2
 The set of symmetries contains only one element for this perturbation.
 symkpt : not enough symmetry to change the number of k points.

--------------------------------------------------------------------------------

-inwffil : will read wavefunctions from disk file /Users/fgoudreault/Workspace/abisuite/abisuite/unittests/files/abinit_AlAs/phonons/ph4/input_data/idat_ph4_WFK
--------------------------------------------------------------------------------

-inwffil : will read wavefunctions from disk file /Users/fgoudreault/Workspace/abisuite/abisuite/unittests/files/abinit_AlAs/phonons/ph4/input_data/idat_ph4_WFK
 Initialisation of the first-order wave-functions :
  ireadwf=   0

     iter   2DEtotal(Ha)        deltaE(Ha) residm    vres2
-ETOT  1   163.33138894297      6.550E+01 2.721E-01 4.022E+04
 ETOT  2   12.274636498117     -1.511E+02 9.476E-02 1.410E+03
 ETOT  3   5.8645545590491     -6.410E+00 3.277E-03 4.951E+01
 ETOT  4   5.7380524516881     -1.265E-01 6.824E-05 1.557E+00
 ETOT  5   5.7323123614396     -5.740E-03 4.820E-06 4.474E-02
 ETOT  6   5.7321840961714     -1.283E-04 8.155E-08 5.308E-04
 ETOT  7   5.7321811807204     -2.915E-06 2.053E-09 3.634E-05
 ETOT  8   5.7321810235858     -1.571E-07 1.110E-10 6.476E-07
 ETOT  9   5.7321810215531     -2.033E-09 1.139E-12 1.457E-08
 ETOT 10   5.7321810214985     -5.461E-11 3.809E-14 1.187E-09

 At SCF step   10       vres2   =  1.19E-09 < tolvrs=  1.00E-08 =>converged.
================================================================================

 ----iterations are completed or convergence reached----

 Mean square residual over all n,k,spin=   11.092E-15; max=  38.090E-15

 Thirteen components of 2nd-order total energy (hartree) are
 1,2,3: 0th-order hamiltonian combined with 1st-order wavefunctions
     kin0=   9.17856032E+01 eigvalue=   2.26423605E-01  local=  -4.69999839E+01
 4,5,6: 1st-order hamiltonian combined with 1st and 0th-order wfs
 loc psp =  -1.60587794E+02  Hartree=   4.98211839E+01     xc=  -1.06524257E+01
 note that "loc psp" includes a xc core correction that could be resolved
 7,8,9: eventually, occupation + non-local contributions
    edocc=   0.00000000E+00     enl0=   7.91762003E+00   enl1=  -2.36090482E+01
 1-9 gives the relaxation energy (to be shifted if some occ is /=2.0)
   erelax=  -9.20984215E+01
 10,11,12 Non-relaxation  contributions : frozen-wavefunctions and Ewald
 fr.local=   5.64891219E+01 fr.nonlo=   1.26903395E+01  Ewald=   2.58546132E+01
 13,14 Frozen wf xc core corrections (1) and (2)
 frxc 1  =  -1.87424024E+01  frxc 2 =   2.15389302E+01
 Resulting in :
 2DEtotal=    0.5732181021E+01 Ha. Also 2DEtotal=    0.155980578131E+03 eV
    (2DErelax=   -9.2098421499E+01 Ha. 2DEnonrelax=    9.7830602520E+01 Ha)
    (  non-var. 2DEtotal :    5.7321812366E+00 Ha)


--------------------------------------------------------------------------------
 Perturbation wavevector (in red.coord.)   0.500000  0.250000  0.000000
 Perturbation : displacement of atom   2   along direction   3
 The set of symmetries contains only one element for this perturbation.
 symkpt : not enough symmetry to change the number of k points.

--------------------------------------------------------------------------------

-inwffil : will read wavefunctions from disk file /Users/fgoudreault/Workspace/abisuite/abisuite/unittests/files/abinit_AlAs/phonons/ph4/input_data/idat_ph4_WFK
--------------------------------------------------------------------------------

-inwffil : will read wavefunctions from disk file /Users/fgoudreault/Workspace/abisuite/abisuite/unittests/files/abinit_AlAs/phonons/ph4/input_data/idat_ph4_WFK
 Initialisation of the first-order wave-functions :
  ireadwf=   0

     iter   2DEtotal(Ha)        deltaE(Ha) residm    vres2
-ETOT  1   66.015635558920     -2.388E+01 1.500E-01 7.992E+03
 ETOT  2   6.6183278701618     -5.940E+01 3.993E-02 1.424E+02
 ETOT  3   5.2204037382188     -1.398E+00 1.109E-03 2.458E+00
 ETOT  4   5.2089973172278     -1.141E-02 7.245E-06 3.621E-02
 ETOT  5   5.2088674606420     -1.299E-04 1.286E-07 1.795E-04
 ETOT  6   5.2088668106813     -6.500E-07 5.703E-10 3.785E-06
 ETOT  7   5.2088667972682     -1.341E-08 1.367E-11 4.207E-07
 ETOT  8   5.2088667955647     -1.704E-09 9.612E-13 1.858E-09

 At SCF step    8       vres2   =  1.86E-09 < tolvrs=  1.00E-08 =>converged.
================================================================================

 ----iterations are completed or convergence reached----

 Mean square residual over all n,k,spin=   23.683E-14; max=  96.123E-14

 Thirteen components of 2nd-order total energy (hartree) are
 1,2,3: 0th-order hamiltonian combined with 1st-order wavefunctions
     kin0=   9.47677457E+01 eigvalue=  -1.37042137E-01  local=  -4.96893288E+01
 4,5,6: 1st-order hamiltonian combined with 1st and 0th-order wfs
 loc psp =  -1.45141136E+02  Hartree=   4.20058157E+01     xc=  -1.08897310E+01
 note that "loc psp" includes a xc core correction that could be resolved
 7,8,9: eventually, occupation + non-local contributions
    edocc=   0.00000000E+00     enl0=   8.62683510E+00   enl1=  -2.42274725E+01
 1-9 gives the relaxation energy (to be shifted if some occ is /=2.0)
   erelax=  -8.46843141E+01
 10,11,12 Non-relaxation  contributions : frozen-wavefunctions and Ewald
 fr.local=   5.64891219E+01 fr.nonlo=   1.26903395E+01  Ewald=   1.79171890E+01
 13,14 Frozen wf xc core corrections (1) and (2)
 frxc 1  =  -1.87423998E+01  frxc 2 =   2.15389302E+01
 Resulting in :
 2DEtotal=    0.5208866796E+01 Ha. Also 2DEtotal=    0.141740473850E+03 eV
    (2DErelax=   -8.4684314087E+01 Ha. 2DEnonrelax=    8.9893180883E+01 Ha)
    (  non-var. 2DEtotal :    5.2088765558E+00 Ha)

================================================================================

 ---- first-order wavefunction calculations are completed ----


 ==> Compute Derivative Database <==
  
  2nd-order matrix (non-cartesian coordinates, masses not included,
   asr not included )
     j1       j2             matrix element
  dir pert dir pert     real part     imaginary part
  
   1    1   1    1         5.7623740926         0.0000222012
   1    1   2    1         3.1340173003        -0.3183809806
   1    1   3    1         2.2170312081        -0.0000000000
   1    1   1    2        -0.3891103829         0.4756020626
   1    1   2    2        -2.0232431618         0.3198575708
   1    1   3    2        -1.9751578900         0.1632213541
  
   2    1   1    1         3.1340026623         0.3183632409
   2    1   2    1         5.3044156002         0.0000164494
   2    1   3    1         2.2170312081         0.0000000000
   2    1   1    2        -2.2789467382         0.2283526560
   2    1   2    2        -2.3055405588         2.1281542780
   2    1   3    2        -1.9751578900         0.1632213541
  
   3    1   1    1         2.2170312081        -0.0000000000
   3    1   2    1         2.2170312081         0.0000000000
   3    1   3    1         4.4340624163        -0.0000000000
   3    1   1    2        -1.9751578900         0.1632213541
   3    1   2    2        -1.9751578900         0.1632213541
   3    1   3    2        -3.9503157799         0.3264427082
  
   1    2   1    1        -0.3891024552        -0.4757155873
   1    2   2    1        -2.2789039139        -0.2283969983
   1    2   3    1        -1.9751087851        -0.1632823408
   1    2   1    2         6.1418024021        -0.0000304365
   1    2   2    2         2.9857222647        -0.3182676491
   1    2   3    2         2.6046030322        -0.0000000000
  
   2    2   1    1        -2.0232021837        -0.3199264694
   2    2   2    1        -2.3055299492        -2.1281606244
   2    2   3    1        -1.9751087851        -0.1632823408
   2    2   1    2         2.9857313663         0.3182236954
   2    2   2    2         5.7324504247        -0.0000271857
   2    2   3    2         2.6046030322         0.0000000000
  
   3    2   1    1        -1.9751087851        -0.1632823408
   3    2   2    1        -1.9751087851        -0.1632823408
   3    2   3    1        -3.9502175703        -0.3265646816
   3    2   1    2         2.6046030322        -0.0000000000
   3    2   2    2         2.6046030322         0.0000000000
   3    2   3    2         5.2092060643        -0.0000000000
  
  
  Dynamical matrix, in cartesian coordinates,
   if specified in the inputs, asr has been imposed
     j1       j2             matrix element
  dir pert dir pert     real part    imaginary part
  
   1    1   1    1         0.0820170553         0.0000005009
   1    1   2    1        -0.0032397665        -0.0000005009
   1    1   3    1        -0.0040682650         0.0056562725
   1    1   1    2        -0.0208113451         0.0211596730
   1    1   2    2        -0.0493715116        -0.0153599640
   1    1   3    2        -0.0192954893         0.0138670887
  
   2    1   1    1        -0.0032397665        -0.0000005009
   2    1   2    1         0.0820170553         0.0000005009
   2    1   3    1         0.0040682650        -0.0056562725
   2    1   1    2        -0.0493715116        -0.0153599640
   2    1   2    2        -0.0208113451         0.0211596730
   2    1   3    2         0.0192954893        -0.0138670887
  
   3    1   1    1        -0.0040680049        -0.0056563747
   3    1   2    1         0.0040680049         0.0056563747
   3    1   3    1         0.1145998630         0.0000001858
   3    1   1    2        -0.0147525595         0.0154928009
   3    1   2    2         0.0147525595        -0.0154928009
   3    1   3    2        -0.0270628785         0.0250996815
  
   1    2   1    1        -0.0208110524        -0.0211608154
   1    2   2    1        -0.0493700594         0.0153589394
   1    2   3    1        -0.0147525520        -0.0154920669
   1    2   1    2         0.0987101179        -0.0000001214
   1    2   2    2        -0.0061613236         0.0000001214
   1    2   3    2        -0.0036362729         0.0056541061
  
   2    2   1    1        -0.0493700594         0.0153589394
   2    2   2    1        -0.0208110524        -0.0211608154
   2    2   3    1         0.0147525520         0.0154920669
   2    2   1    2        -0.0061613236         0.0000001214
   2    2   2    2         0.0987101179        -0.0000001214
   2    2   3    2         0.0036362729        -0.0056541061
  
   3    2   1    1        -0.0192954491        -0.0138659185
   3    2   2    1         0.0192954491         0.0138659185
   3    2   3    1        -0.0270628418        -0.0251006688
   3    2   1    2        -0.0036364346        -0.0056540483
   3    2   2    2         0.0036364346         0.0056540483
   3    2   3    2         0.1122525066        -0.0000009023

  Phonon wavevector (reduced coordinates) :  0.50000  0.25000  0.00000
 Phonon energies in Hartree :
   4.050888E-04  5.608612E-04  8.351673E-04  1.453053E-03  1.454381E-03
   1.590529E-03
 Phonon frequencies in cm-1    :
-  8.890672E+01  1.230948E+02  1.832980E+02  3.189083E+02  3.191998E+02
-  3.490807E+02

== END DATASET(S) ==============================================================
================================================================================
  
 -outvars: echo values of variables after computation  --------
            acell      1.0610000000E+01  1.0610000000E+01  1.0610000000E+01 Bohr
              amu      2.69815390E+01  7.49215900E+01
           diemac      9.00000000E+00
             ecut      3.00000000E+00 Hartree
           etotal      5.2088667956E+00
            fcart      0.0000000000E+00  0.0000000000E+00  0.0000000000E+00
                       0.0000000000E+00  0.0000000000E+00  0.0000000000E+00
-          fftalg         112
           irdwfk           1
              kpt     -1.25000000E-01 -2.50000000E-01  0.00000000E+00
                      -2.50000000E-01 -1.25000000E-01  0.00000000E+00
                      -1.25000000E-01 -1.25000000E-01  1.25000000E-01
                      -1.25000000E-01  5.00000000E-01  0.00000000E+00
                      -2.50000000E-01 -3.75000000E-01  0.00000000E+00
                      -1.25000000E-01 -3.75000000E-01  1.25000000E-01
                      -3.75000000E-01 -2.50000000E-01  0.00000000E+00
                      -2.50000000E-01 -2.50000000E-01  1.25000000E-01
                      -1.25000000E-01 -2.50000000E-01  2.50000000E-01
                       5.00000000E-01 -1.25000000E-01  0.00000000E+00
                      -3.75000000E-01 -1.25000000E-01  1.25000000E-01
                      -2.50000000E-01 -1.25000000E-01  2.50000000E-01
                      -1.25000000E-01 -1.25000000E-01  3.75000000E-01
                      -1.25000000E-01  2.50000000E-01  0.00000000E+00
                      -2.50000000E-01  3.75000000E-01  0.00000000E+00
                      -1.25000000E-01  3.75000000E-01  1.25000000E-01
                      -3.75000000E-01  5.00000000E-01  0.00000000E+00
                      -2.50000000E-01  5.00000000E-01  1.25000000E-01
                      -1.25000000E-01  5.00000000E-01  2.50000000E-01
                       5.00000000E-01 -3.75000000E-01  0.00000000E+00
                      -3.75000000E-01 -3.75000000E-01  1.25000000E-01
                      -2.50000000E-01 -3.75000000E-01  2.50000000E-01
                      -1.25000000E-01 -3.75000000E-01  3.75000000E-01
                       3.75000000E-01 -2.50000000E-01  0.00000000E+00
                       5.00000000E-01 -2.50000000E-01  1.25000000E-01
                      -3.75000000E-01 -2.50000000E-01  2.50000000E-01
                      -2.50000000E-01 -2.50000000E-01  3.75000000E-01
                      -1.25000000E-01 -2.50000000E-01  5.00000000E-01
                       2.50000000E-01 -1.25000000E-01  0.00000000E+00
                       3.75000000E-01 -1.25000000E-01  1.25000000E-01
                       5.00000000E-01 -1.25000000E-01  2.50000000E-01
                      -3.75000000E-01 -1.25000000E-01  3.75000000E-01
                      -2.50000000E-01 -1.25000000E-01  5.00000000E-01
                      -1.25000000E-01 -1.25000000E-01 -3.75000000E-01
                      -1.25000000E-01  0.00000000E+00  0.00000000E+00
                      -2.50000000E-01  1.25000000E-01  0.00000000E+00
                      -1.25000000E-01  1.25000000E-01  1.25000000E-01
                      -3.75000000E-01  2.50000000E-01  0.00000000E+00
                      -2.50000000E-01  2.50000000E-01  1.25000000E-01
                      -1.25000000E-01  2.50000000E-01  2.50000000E-01
                       5.00000000E-01  3.75000000E-01  0.00000000E+00
                      -3.75000000E-01  3.75000000E-01  1.25000000E-01
                      -2.50000000E-01  3.75000000E-01  2.50000000E-01
                      -1.25000000E-01  3.75000000E-01  3.75000000E-01
                       3.75000000E-01  5.00000000E-01  0.00000000E+00
                       5.00000000E-01  5.00000000E-01  1.25000000E-01
                      -3.75000000E-01  5.00000000E-01  2.50000000E-01
                      -2.50000000E-01  5.00000000E-01  3.75000000E-01
                      -1.25000000E-01  5.00000000E-01  5.00000000E-01
                       2.50000000E-01 -3.75000000E-01  0.00000000E+00
                       outvar_i_n : Printing only first  50 k-points.
           kptopt           3
         kptrlatt        4   -4    4     -4    4    4     -4   -4    4
          kptrlen      4.24400000E+01
P           mkmem          64
P          mkqmem          64
P          mk1mem          64
            natom           2
            nband           4
            ngfft          12      12      12
             nkpt         256
             nqpt           1
            nstep          25
             nsym          24
           ntypat           2
              occ      2.000000  2.000000  2.000000  2.000000
        optdriver           1
              qpt      5.00000000E-01  2.50000000E-01  0.00000000E+00
          rfatpol           1       2
            rfdir           1       1       1
           rfphon           1
            rprim      0.0000000000E+00  5.0000000000E-01  5.0000000000E-01
                       5.0000000000E-01  0.0000000000E+00  5.0000000000E-01
                       5.0000000000E-01  5.0000000000E-01  0.0000000000E+00
           shiftk      5.00000000E-01  5.00000000E-01  5.00000000E-01
          spgroup         216
           strten      0.0000000000E+00  0.0000000000E+00  0.0000000000E+00
                       0.0000000000E+00  0.0000000000E+00  0.0000000000E+00
           symrel      1  0  0   0  1  0   0  0  1       0 -1  1   0 -1  0   1 -1  0
                      -1  0  0  -1  0  1  -1  1  0       0  1 -1   1  0 -1   0  0 -1
                      -1  0  0  -1  1  0  -1  0  1       0 -1  1   1 -1  0   0 -1  0
                       1  0  0   0  0  1   0  1  0       0  1 -1   0  0 -1   1  0 -1
                      -1  0  1  -1  1  0  -1  0  0       0 -1  0   1 -1  0   0 -1  1
                       1  0 -1   0  0 -1   0  1 -1       0  1  0   0  0  1   1  0  0
                       1  0 -1   0  1 -1   0  0 -1       0 -1  0   0 -1  1   1 -1  0
                      -1  0  1  -1  0  0  -1  1  0       0  1  0   1  0  0   0  0  1
                       0  0 -1   0  1 -1   1  0 -1       1 -1  0   0 -1  1   0 -1  0
                       0  0  1   1  0  0   0  1  0      -1  1  0  -1  0  0  -1  0  1
                       0  0  1   0  1  0   1  0  0       1 -1  0   0 -1  0   0 -1  1
                       0  0 -1   1  0 -1   0  1 -1      -1  1  0  -1  0  1  -1  0  0
           tolvrs      1.00000000E-08
            typat      1  2
              wtk        0.00391    0.00391    0.00391    0.00391    0.00391    0.00391
                         0.00391    0.00391    0.00391    0.00391    0.00391    0.00391
                         0.00391    0.00391    0.00391    0.00391    0.00391    0.00391
                         0.00391    0.00391    0.00391    0.00391    0.00391    0.00391
                         0.00391    0.00391    0.00391    0.00391    0.00391    0.00391
                         0.00391    0.00391    0.00391    0.00391    0.00391    0.00391
                         0.00391    0.00391    0.00391    0.00391    0.00391    0.00391
                         0.00391    0.00391    0.00391    0.00391    0.00391    0.00391
                         0.00391    0.00391
                       outvars : Printing only first  50 k-points.
           xangst      0.0000000000E+00  0.0000000000E+00  0.0000000000E+00
                       1.4036425458E+00  1.4036425458E+00  1.4036425458E+00
            xcart      0.0000000000E+00  0.0000000000E+00  0.0000000000E+00
                       2.6525000000E+00  2.6525000000E+00  2.6525000000E+00
             xred      0.0000000000E+00  0.0000000000E+00  0.0000000000E+00
                       2.5000000000E-01  2.5000000000E-01  2.5000000000E-01
            znucl       13.00000   33.00000

================================================================================


- Timing analysis has been suppressed with timopt=0



================================================================================

 Suggested references for the acknowledgment of ABINIT usage.

 The users of ABINIT have little formal obligations with respect to the ABINIT group
 (those specified in the GNU General Public License, http://www.gnu.org/copyleft/gpl.txt).
 However, it is common practice in the scientific literature,
 to acknowledge the efforts of people that have made the research possible.
 In this spirit, please find below suggested citations of work written by ABINIT developers,
 corresponding to implementations inside of ABINIT that you have used in the present run.
 Note also that it will be of great value to readers of publications presenting these results,
 to read papers enabling them to understand the theoretical formalism and details
 of the ABINIT implementation.
 For information on why they are suggested, see also https://docs.abinit.org/theory/acknowledgments.
-
- [1] Recent developments in the ABINIT software package.
- Computer Phys. Comm. 205, 106 (2016).
- X.Gonze, F.Jollet, F.Abreu Araujo, D.Adams, B.Amadon, T.Applencourt,
- C.Audouze, J.-M.Beuken, J.Bieder, A.Bokhanchuk, E.Bousquet, F.Bruneval
- D.Caliste, M.Cote, F.Dahm, F.Da Pieve, M.Delaveau, M.Di Gennaro,
- B.Dorado, C.Espejo, G.Geneste, L.Genovese, A.Gerossier, M.Giantomassi,
- Y.Gillet, D.R.Hamann, L.He, G.Jomard, J.Laflamme Janssen, S.Le Roux,
- A.Levitt, A.Lherbier, F.Liu, I.Lukacevic, A.Martin, C.Martins,
- M.J.T.Oliveira, S.Ponce, Y.Pouillon, T.Rangel, G.-M.Rignanese,
- A.H.Romero, B.Rousseau, O.Rubel, A.A.Shukri, M.Stankovski, M.Torrent,
- M.J.Van Setten, B.Van Troeye, M.J.Verstraete, D.Waroquier, J.Wiktor,
- B.Xu, A.Zhou, J.W.Zwanziger.
- Comment: the fourth generic paper describing the ABINIT project.
- Note that a version of this paper, that is not formatted for Computer Phys. Comm. 
- is available at https://www.abinit.org/about/ABINIT16.pdf .
- The licence allows the authors to put it on the Web.
- DOI and bibtex: see https://docs.abinit.org/theory/bibliography/#gonze2016
-
- [2] First-principles responses of solids to atomic displacements and homogeneous electric fields:,
- implementation of a conjugate-gradient algorithm. X. Gonze, Phys. Rev. B55, 10337 (1997).
- Comment: Non-vanishing rfphon and/or rfelfd, in the norm-conserving case.
- DOI and bibtex: see https://docs.abinit.org/theory/bibliography/#gonze1997
-
- [3] Dynamical matrices, Born effective charges, dielectric permittivity tensors, and ,
- interatomic force constants from density-functional perturbation theory,
- X. Gonze and C. Lee, Phys. Rev. B55, 10355 (1997).
- Comment: Non-vanishing rfphon and/or rfelfd, in the norm-conserving case.
- DOI and bibtex: see https://docs.abinit.org/theory/bibliography/#gonze1997a
-
- [4] Ab initio pseudopotentials for electronic structure calculations of poly-atomic systems, 
- using density-functional theory.
- M. Fuchs, M. Scheffler, Comput. Phys. Commun. 119, 67 (1999).
- Comment: Some pseudopotential generated using the FHI code were used.
- DOI and bibtex: see https://docs.abinit.org/theory/bibliography/#fuchs1999
-
- [5] ABINIT: First-principles approach of materials and nanosystem properties.
- Computer Phys. Comm. 180, 2582-2615 (2009).
- X. Gonze, B. Amadon, P.-M. Anglade, J.-M. Beuken, F. Bottin, P. Boulanger, F. Bruneval,
- D. Caliste, R. Caracas, M. Cote, T. Deutsch, L. Genovese, Ph. Ghosez, M. Giantomassi
- S. Goedecker, D.R. Hamann, P. Hermet, F. Jollet, G. Jomard, S. Leroux, M. Mancini, S. Mazevet,
- M.J.T. Oliveira, G. Onida, Y. Pouillon, T. Rangel, G.-M. Rignanese, D. Sangalli, R. Shaltaf,
- M. Torrent, M.J. Verstraete, G. Zerah, J.W. Zwanziger
- Comment: the third generic paper describing the ABINIT project.
- Note that a version of this paper, that is not formatted for Computer Phys. Comm. 
- is available at https://www.abinit.org/about/ABINIT_CPC_v10.pdf .
- The licence allows the authors to put it on the Web.
- DOI and bibtex: see https://docs.abinit.org/theory/bibliography/#gonze2009
-
- [6] A brief introduction to the ABINIT software package.
- Z. Kristallogr. 220, 558-562 (2005).
- X. Gonze, G.-M. Rignanese, M. Verstraete, J.-M. Beuken, Y. Pouillon, R. Caracas, F. Jollet,
- M. Torrent, G. Zerah, M. Mikami, Ph. Ghosez, M. Veithen, J.-Y. Raty, V. Olevano, F. Bruneval,
- L. Reining, R. Godby, G. Onida, D.R. Hamann, and D.C. Allan.
- Comment: the second generic paper describing the ABINIT project. Note that this paper
- should be cited especially if you are using the GW part of ABINIT, as several authors
- of this part are not in the list of authors of the first or third paper.
- The .pdf of the latter paper is available at https://www.abinit.org/about/zfk_0505-06_558-562.pdf.
- Note that it should not redistributed (Copyright by Oldenburg Wissenshaftverlag,
- the licence allows the authors to put it on the Web).
- DOI and bibtex: see https://docs.abinit.org/theory/bibliography/#gonze2005
-
- Proc.   0 individual time (sec): cpu=          7.1  wall=          7.1

================================================================================

 Calculation completed.
.Delivered   0 WARNINGs and   0 COMMENTs to log file.
+Overall time at end (sec) : cpu=         28.5  wall=         28.6
