
     Program MATDYN v.6.3 starts on 27Nov2018 at 10:11:36 

     This program is part of the open-source Quantum ESPRESSO suite
     for quantum simulation of materials; please cite
         "P. Giannozzi et al., J. Phys.:Condens. Matter 21 395502 (2009);
         "P. Giannozzi et al., J. Phys.:Condens. Matter 29 465901 (2017);
          URL http://www.quantum-espresso.org", 
     in publications or presentations arising from this work. More details at
     http://www.quantum-espresso.org/quote

     Parallel version (MPI), running on     4 processors

     MPI processes distributed on     1 nodes
     K-points division:     npool     =       4
 mass for atomic type   1 not given; uses mass from file /home/fgoudreault/Workspace/abilaunch/examples/launchers/qe_matdyn_launcher/input_data/matdyn.fc                                                                                                                                                                

     MATDYN       :     0.01s CPU         0.03s WALL


   This run was terminated on:  10:11:36  27Nov2018            

=------------------------------------------------------------------------------=
   JOB DONE.
=------------------------------------------------------------------------------=
