
     Program PWSCF v.6.7GPU starts on 20Apr2021 at  8:47:46 

     This program is part of the open-source Quantum ESPRESSO suite
     for quantum simulation of materials; please cite
         "P. Giannozzi et al., J. Phys.:Condens. Matter 21 395502 (2009);
         "P. Giannozzi et al., J. Phys.:Condens. Matter 29 465901 (2017);
         "P. Giannozzi et al., J. Chem. Phys. 152 154105 (2020);
          URL http://www.quantum-espresso.org", 
     in publications or presentations arising from this work. More details at
     http://www.quantum-espresso.org/quote

     Parallel version (MPI), running on     4 processors

     MPI processes distributed on     1 nodes
     K-points division:     npool     =       4
     Reading input from /home/fgoudreault/Workspace/abisuite/abisuite/unittests/test_workflows/test_files/qe_Pb/gs_ecut_convergence/ecutwfc/ecutwfc_30/ecutwfc_30.in

     Current dimensions of program PWSCF are:
     Max number of different atomic species (ntypx) = 10
     Max number of k-points (npk) =  40000
     Max angular momentum in pseudopotentials (lmaxx) =  3

     Subspace diagonalization in iterative solution of the eigenvalue problem:
     a serial algorithm will be used


     G-vector sticks info
     --------------------
     sticks:   dense  smooth     PW     G-vecs:    dense   smooth      PW
     Sum         349     349    121                 4285     4285     893

     Using Slab Decomposition



     bravais-lattice index     =            2
     lattice parameter (alat)  =       9.2226  a.u.
     unit-cell volume          =     196.1075 (a.u.)^3
     number of atoms/cell      =            1
     number of atomic types    =            1
     number of electrons       =        14.00
     number of Kohn-Sham states=           11
     kinetic-energy cutoff     =      30.0000  Ry
     charge density cutoff     =     120.0000  Ry
     scf convergence threshold =      1.0E-08
     mixing beta               =       0.7000
     number of iterations used =            8  plain     mixing
     Exchange-correlation= PZ
                           (   1   1   0   0   0   0   0)

     celldm(1)=   9.222558  celldm(2)=   0.000000  celldm(3)=   0.000000
     celldm(4)=   0.000000  celldm(5)=   0.000000  celldm(6)=   0.000000

     crystal axes: (cart. coord. in units of alat)
               a(1) = (  -0.500000   0.000000   0.500000 )  
               a(2) = (   0.000000   0.500000   0.500000 )  
               a(3) = (  -0.500000   0.500000   0.000000 )  

     reciprocal axes: (cart. coord. in units 2 pi/alat)
               b(1) = ( -1.000000 -1.000000  1.000000 )  
               b(2) = (  1.000000  1.000000  1.000000 )  
               b(3) = ( -1.000000  1.000000 -1.000000 )  


     PseudoPot. # 1 for Pb read from file:
     /home/fgoudreault/Workspace/abisuite/abisuite/unittests/test_workflows/test_files/pseudos/pb_s.UPF
     MD5 check sum: 7774f596943a2055f0d8d19eea6f2ae8
     Pseudo is Norm-conserving, Zval = 14.0
     Generated using "atomic" code by A. Dal Corso  (Quantum ESPRESSO distribution)
     Using radial grid of 1281 points,  2 beta functions with: 
                l(1) =   2
                l(2) =   1

     atomic species   valence    mass     pseudopotential
        Pb            14.00   207.20000     Pb( 1.00)

     48 Sym. Ops., with inversion, found



   Cartesian axes

     site n.     atom                  positions (alat units)
         1           Pb  tau(   1) = (   0.0000000   0.0000000   0.0000000  )

     number of k points=    60  Gaussian smearing, width (Ry)=  0.1000
                       cart. coord. in units 2pi/alat
        k(    1) = (  -0.0625000   0.0625000   0.0625000), wk =   0.0078125
        k(    2) = (  -0.1875000   0.1875000  -0.0625000), wk =   0.0234375
        k(    3) = (  -0.3125000   0.3125000  -0.1875000), wk =   0.0234375
        k(    4) = (  -0.4375000   0.4375000  -0.3125000), wk =   0.0234375
        k(    5) = (   0.4375000  -0.4375000   0.5625000), wk =   0.0234375
        k(    6) = (   0.3125000  -0.3125000   0.4375000), wk =   0.0234375
        k(    7) = (   0.1875000  -0.1875000   0.3125000), wk =   0.0234375
        k(    8) = (   0.0625000  -0.0625000   0.1875000), wk =   0.0234375
        k(    9) = (  -0.0625000   0.3125000   0.0625000), wk =   0.0234375
        k(   10) = (  -0.1875000   0.4375000  -0.0625000), wk =   0.0468750
        k(   11) = (  -0.3125000   0.5625000  -0.1875000), wk =   0.0468750
        k(   12) = (   0.5625000  -0.3125000   0.6875000), wk =   0.0468750
        k(   13) = (   0.4375000  -0.1875000   0.5625000), wk =   0.0468750
        k(   14) = (   0.3125000  -0.0625000   0.4375000), wk =   0.0468750
        k(   15) = (   0.1875000   0.0625000   0.3125000), wk =   0.0468750
        k(   16) = (  -0.0625000   0.5625000   0.0625000), wk =   0.0234375
        k(   17) = (  -0.1875000   0.6875000  -0.0625000), wk =   0.0468750
        k(   18) = (   0.6875000  -0.1875000   0.8125000), wk =   0.0468750
        k(   19) = (   0.5625000  -0.0625000   0.6875000), wk =   0.0468750
        k(   20) = (   0.4375000   0.0625000   0.5625000), wk =   0.0468750
        k(   21) = (   0.3125000   0.1875000   0.4375000), wk =   0.0468750
        k(   22) = (  -0.0625000   0.8125000   0.0625000), wk =   0.0234375
        k(   23) = (   0.8125000  -0.0625000   0.9375000), wk =   0.0468750
        k(   24) = (   0.6875000   0.0625000   0.8125000), wk =   0.0468750
        k(   25) = (   0.5625000   0.1875000   0.6875000), wk =   0.0468750
        k(   26) = (   0.4375000   0.3125000   0.5625000), wk =   0.0468750
        k(   27) = (  -0.0625000  -0.9375000   0.0625000), wk =   0.0234375
        k(   28) = (  -0.1875000  -0.8125000  -0.0625000), wk =   0.0468750
        k(   29) = (  -0.3125000  -0.6875000  -0.1875000), wk =   0.0468750
        k(   30) = (  -0.0625000  -0.6875000   0.0625000), wk =   0.0234375
        k(   31) = (  -0.1875000  -0.5625000  -0.0625000), wk =   0.0468750
        k(   32) = (  -0.0625000  -0.4375000   0.0625000), wk =   0.0234375
        k(   33) = (  -0.1875000   0.1875000   0.1875000), wk =   0.0078125
        k(   34) = (  -0.3125000   0.3125000   0.0625000), wk =   0.0234375
        k(   35) = (  -0.4375000   0.4375000  -0.0625000), wk =   0.0234375
        k(   36) = (   0.4375000  -0.4375000   0.8125000), wk =   0.0234375
        k(   37) = (   0.3125000  -0.3125000   0.6875000), wk =   0.0234375
        k(   38) = (   0.1875000  -0.1875000   0.5625000), wk =   0.0234375
        k(   39) = (  -0.1875000   0.4375000   0.1875000), wk =   0.0234375
        k(   40) = (  -0.3125000   0.5625000   0.0625000), wk =   0.0468750
        k(   41) = (   0.5625000  -0.3125000   0.9375000), wk =   0.0468750
        k(   42) = (   0.4375000  -0.1875000   0.8125000), wk =   0.0468750
        k(   43) = (   0.3125000  -0.0625000   0.6875000), wk =   0.0468750
        k(   44) = (  -0.1875000   0.6875000   0.1875000), wk =   0.0234375
        k(   45) = (   0.6875000  -0.1875000   1.0625000), wk =   0.0468750
        k(   46) = (   0.5625000  -0.0625000   0.9375000), wk =   0.0468750
        k(   47) = (   0.4375000   0.0625000   0.8125000), wk =   0.0468750
        k(   48) = (  -0.1875000  -1.0625000   0.1875000), wk =   0.0234375
        k(   49) = (  -0.3125000  -0.9375000   0.0625000), wk =   0.0468750
        k(   50) = (  -0.1875000  -0.8125000   0.1875000), wk =   0.0234375
        k(   51) = (  -0.3125000   0.3125000   0.3125000), wk =   0.0078125
        k(   52) = (  -0.4375000   0.4375000   0.1875000), wk =   0.0234375
        k(   53) = (   0.4375000  -0.4375000   1.0625000), wk =   0.0234375
        k(   54) = (   0.3125000  -0.3125000   0.9375000), wk =   0.0234375
        k(   55) = (  -0.3125000   0.5625000   0.3125000), wk =   0.0234375
        k(   56) = (   0.5625000  -0.3125000   1.1875000), wk =   0.0468750
        k(   57) = (   0.4375000  -0.1875000   1.0625000), wk =   0.0468750
        k(   58) = (  -0.3125000  -1.1875000   0.3125000), wk =   0.0234375
        k(   59) = (  -0.4375000   0.4375000   0.4375000), wk =   0.0078125
        k(   60) = (   0.4375000  -0.4375000   1.3125000), wk =   0.0234375

     Dense  grid:     4285 G-vectors     FFT dimensions: (  24,  24,  24)

     Estimated max dynamical RAM per process >       4.77 MB

     Estimated total dynamical RAM >      15.95 MB

     Initial potential from superposition of free atoms

     starting charge   13.99923, renormalised to   14.00000

     negative rho (up, down):  2.610E-05 0.000E+00
     Starting wfcs are    9 randomized atomic wfcs +    2 random wfcs

     total cpu time spent up to now is        0.8 secs

     Self-consistent Calculation

     iteration #  1     ecut=    30.00 Ry     beta= 0.70
     Davidson diagonalization with overlap
     ethr =  1.00E-02,  avg # of iterations =  4.7

     Threshold (ethr) on eigenvalues was too large:
     Diagonalizing with lowered threshold

     Davidson diagonalization with overlap
     ethr =  3.12E-04,  avg # of iterations =  2.1

     total cpu time spent up to now is        5.1 secs

     total energy              =    -118.67538555 Ry
     estimated scf accuracy    <       0.04439311 Ry

     iteration #  2     ecut=    30.00 Ry     beta= 0.70
     Davidson diagonalization with overlap
     ethr =  3.17E-04,  avg # of iterations =  2.2

     total cpu time spent up to now is        7.8 secs

     total energy              =    -118.68405338 Ry
     estimated scf accuracy    <       0.00300282 Ry

     iteration #  3     ecut=    30.00 Ry     beta= 0.70
     Davidson diagonalization with overlap
     ethr =  2.14E-05,  avg # of iterations =  3.2

     total cpu time spent up to now is       11.3 secs

     total energy              =    -118.68440207 Ry
     estimated scf accuracy    <       0.00018902 Ry

     iteration #  4     ecut=    30.00 Ry     beta= 0.70
     Davidson diagonalization with overlap
     ethr =  1.35E-06,  avg # of iterations =  2.8

     total cpu time spent up to now is       14.0 secs

     total energy              =    -118.68440613 Ry
     estimated scf accuracy    <       0.00000083 Ry

     iteration #  5     ecut=    30.00 Ry     beta= 0.70
     Davidson diagonalization with overlap
     ethr =  5.91E-09,  avg # of iterations =  2.0

     total cpu time spent up to now is       16.5 secs

     total energy              =    -118.68440644 Ry
     estimated scf accuracy    <       0.00000028 Ry

     iteration #  6     ecut=    30.00 Ry     beta= 0.70
     Davidson diagonalization with overlap
     ethr =  2.02E-09,  avg # of iterations =  2.0

     total cpu time spent up to now is       19.1 secs

     End of self-consistent calculation

          k =-0.0625 0.0625 0.0625 (   534 PWs)   bands (ev):

    -4.6142  -4.6115  -4.6115  -4.3568  -4.3568  -0.3295  18.1260  18.9253
    18.9253  22.0729  23.8756

          k =-0.1875 0.1875-0.0625 (   544 PWs)   bands (ev):

    -4.8048  -4.6126  -4.5815  -4.4711  -4.4015   0.0874  15.6108  17.5069
    19.0003  21.9679  24.4352

          k =-0.3125 0.3125-0.1875 (   549 PWs)   bands (ev):

    -4.6998  -4.6837  -4.6701  -4.4644  -4.3604   1.1258  11.8127  16.7293
    18.3174  21.7627  23.1247

          k =-0.4375 0.4375-0.3125 (   547 PWs)   bands (ev):

    -4.7102  -4.7028  -4.5657  -4.3305  -4.3051   2.6489   8.5878  16.4020
    17.4761  21.4329  22.3429

          k = 0.4375-0.4375 0.5625 (   554 PWs)   bands (ev):

    -4.7670  -4.7552  -4.7330  -4.3744  -4.2891   3.4601   7.3367  16.5732
    16.9562  21.1044  22.4113

          k = 0.3125-0.3125 0.4375 (   542 PWs)   bands (ev):

    -4.6869  -4.6343  -4.5521  -4.2844  -4.2525   2.1161   9.5511  16.9444
    17.1965  21.2102  22.8493

          k = 0.1875-0.1875 0.3125 (   549 PWs)   bands (ev):

    -4.7237  -4.6546  -4.6477  -4.4790  -4.4508   0.7132  13.0554  17.4137
    18.0193  21.6425  23.4422

          k = 0.0625-0.0625 0.1875 (   537 PWs)   bands (ev):

    -4.6318  -4.6273  -4.5943  -4.4091  -4.3355  -0.1215  16.9150  18.1964
    18.5832  21.7439  24.2457

          k =-0.0625 0.3125 0.0625 (   549 PWs)   bands (ev):

    -4.8233  -4.6526  -4.6288  -4.6074  -4.3362   0.2951  15.5862  17.1674
    17.5270  21.1644  22.5561

          k =-0.1875 0.4375-0.0625 (   547 PWs)   bands (ev):

    -4.8183  -4.6886  -4.5265  -4.4305  -4.3129   1.1251  13.1018  15.3877
    17.1275  21.0249  21.9639

          k =-0.3125 0.5625-0.1875 (   542 PWs)   bands (ev):

    -4.7236  -4.5764  -4.5382  -4.3198  -4.2167   2.4977   9.8815  14.7046
    16.1542  20.4408  23.8302

          k = 0.5625-0.3125 0.6875 (   548 PWs)   bands (ev):

    -4.7164  -4.6563  -4.5454  -4.3673  -4.3366   3.7671   7.8226  14.2293
    15.8802  20.4409  23.5233

          k = 0.4375-0.1875 0.5625 (   546 PWs)   bands (ev):

    -4.7171  -4.6435  -4.5597  -4.3450  -4.2822   3.0014   9.0029  13.9671
    16.5836  20.9287  23.2832

          k = 0.3125-0.0625 0.4375 (   545 PWs)   bands (ev):

    -4.7300  -4.6592  -4.5485  -4.4333  -4.2656   1.5307  11.9564  14.3523
    17.7640  21.7975  23.0914

          k = 0.1875 0.0625 0.3125 (   550 PWs)   bands (ev):

    -4.8331  -4.7057  -4.5938  -4.5399  -4.3789   0.5043  14.3098  16.4443
    18.4323  21.9079  23.0349

          k =-0.0625 0.5625 0.0625 (   548 PWs)   bands (ev):

    -4.9139  -4.6771  -4.4311  -4.4091  -4.2780   1.7385  12.7720  15.0484
    15.2109  19.4262  20.1373

          k =-0.1875 0.6875-0.0625 (   541 PWs)   bands (ev):

    -4.8118  -4.6646  -4.3271  -4.2411  -4.2047   2.9056  10.8171  13.4717
    14.4345  19.3368  20.9445

          k = 0.6875-0.1875 0.8125 (   545 PWs)   bands (ev):

    -4.7971  -4.5377  -4.4332  -4.3831  -4.2493   4.2092   9.0293  11.8414
    14.3968  19.4808  23.9234

          k = 0.5625-0.0625 0.6875 (   542 PWs)   bands (ev):

    -4.7430  -4.4968  -4.4287  -4.3143  -4.3066   4.1333   9.3196  10.9614
    15.1856  20.0474  25.6551

          k = 0.4375 0.0625 0.5625 (   542 PWs)   bands (ev):

    -4.6322  -4.5854  -4.5228  -4.3474  -4.2760   2.8523  10.1906  12.4612
    16.4975  20.9792  24.1257

          k = 0.3125 0.1875 0.4375 (   546 PWs)   bands (ev):

    -4.7351  -4.6308  -4.6059  -4.3982  -4.2748   1.7299  10.7388  15.7492
    17.5487  21.3206  23.1557

          k =-0.0625 0.8125 0.0625 (   547 PWs)   bands (ev):

    -4.9821  -4.7207  -4.3102  -4.2097  -4.2070   3.8255   9.6185  13.4926
    13.9669  18.0709  19.4534

          k = 0.8125-0.0625 0.9375 (   545 PWs)   bands (ev):

    -4.9236  -4.5632  -4.3231  -4.2925  -4.1818   4.8114   8.6419  12.2893
    13.4332  18.7098  20.5054

          k = 0.6875 0.0625 0.8125 (   537 PWs)   bands (ev):

    -4.7198  -4.4363  -4.3325  -4.2741  -4.2092   4.7714   9.1736  10.6156
    14.1210  19.3200  23.8071

          k = 0.5625 0.1875 0.6875 (   541 PWs)   bands (ev):

    -4.7116  -4.5337  -4.4425  -4.3142  -4.2552   4.0518   8.3124  12.5579
    15.4036  20.1769  24.4700

          k = 0.4375 0.3125 0.5625 (   549 PWs)   bands (ev):

    -4.7325  -4.6928  -4.6145  -4.3367  -4.3053   3.2488   7.9599  15.5539
    16.7344  20.8753  22.8411

          k =-0.0625-0.9375 0.0625 (   537 PWs)   bands (ev):

    -4.9366  -4.5438  -4.2494  -4.1178  -4.0246   4.7702   8.4147  13.1908
    13.7060  17.8458  19.3317

          k =-0.1875-0.8125-0.0625 (   540 PWs)   bands (ev):

    -4.8476  -4.6613  -4.2889  -4.1625  -4.1376   3.9520   9.6168  12.6961
    13.7428  18.9077  20.6548

          k =-0.3125-0.6875-0.1875 (   546 PWs)   bands (ev):

    -4.7939  -4.6368  -4.5100  -4.3800  -4.1852   3.3662   9.2865  13.3659
    15.0160  19.8418  24.0607

          k =-0.0625-0.6875 0.0625 (   547 PWs)   bands (ev):

    -4.9645  -4.6882  -4.3340  -4.2779  -4.2588   2.7307  11.1889  14.1077
    14.4769  18.5889  19.7169

          k =-0.1875-0.5625-0.0625 (   546 PWs)   bands (ev):

    -4.8279  -4.6695  -4.4757  -4.3942  -4.2459   1.9358  11.9649  14.4049
    15.6332  20.0299  21.3717

          k =-0.0625-0.4375 0.0625 (   546 PWs)   bands (ev):

    -4.8570  -4.5774  -4.5561  -4.4378  -4.3204   0.9185  14.2277  16.1294
    16.2566  20.4647  20.9184

          k =-0.1875 0.1875 0.1875 (   552 PWs)   bands (ev):

    -4.8184  -4.6421  -4.6421  -4.5476  -4.5476   0.2964  14.3264  18.3525
    18.3525  21.5066  24.7558

          k =-0.3125 0.3125 0.0625 (   548 PWs)   bands (ev):

    -4.7903  -4.6439  -4.6251  -4.5432  -4.2681   0.9196  13.0615  15.3819
    18.7079  22.5744  22.9817

          k =-0.4375 0.4375-0.0625 (   543 PWs)   bands (ev):

    -4.6901  -4.6167  -4.6151  -4.4151  -4.1393   2.1188  10.9663  13.3456
    17.6933  21.1605  24.1299

          k = 0.4375-0.4375 0.8125 (   546 PWs)   bands (ev):

    -4.7410  -4.5729  -4.5527  -4.3619  -4.2908   3.5650   8.4340  13.2254
    16.4649  20.1140  24.5764

          k = 0.3125-0.3125 0.6875 (   545 PWs)   bands (ev):

    -4.7646  -4.5808  -4.5234  -4.3531  -4.2443   3.5848   8.3740  13.9019
    15.7039  19.6406  25.0441

          k = 0.1875-0.1875 0.5625 (   541 PWs)   bands (ev):

    -4.7463  -4.6032  -4.4823  -4.3011  -4.2215   2.1291  10.9503  15.0930
    15.5957  19.7667  22.8008

          k =-0.1875 0.4375 0.1875 (   547 PWs)   bands (ev):

    -4.7529  -4.6409  -4.5768  -4.4054  -4.3725   1.3297  11.9216  16.4519
    16.7426  20.8001  23.1235

          k =-0.3125 0.5625 0.0625 (   541 PWs)   bands (ev):

    -4.6834  -4.6063  -4.5062  -4.3388  -4.2085   2.3172  11.0171  13.4337
    16.1196  21.1745  22.9125

          k = 0.5625-0.3125 0.9375 (   546 PWs)   bands (ev):

    -4.7064  -4.6067  -4.4930  -4.3931  -4.3007   3.6669   9.6747  11.7314
    14.8055  21.4092  23.8754

          k = 0.4375-0.1875 0.8125 (   544 PWs)   bands (ev):

    -4.7600  -4.5311  -4.4197  -4.3889  -4.2770   4.3331   8.7236  11.9061
    14.0792  20.9532  24.1486

          k = 0.3125-0.0625 0.6875 (   544 PWs)   bands (ev):

    -4.7259  -4.6639  -4.4601  -4.3216  -4.2291   3.2323  10.2329  12.6272
    14.4884  20.7257  22.6030

          k =-0.1875 0.6875 0.1875 (   541 PWs)   bands (ev):

    -4.8168  -4.5918  -4.3888  -4.3063  -4.1570   3.0689  10.1287  13.4185
    14.9108  19.0558  22.4167

          k = 0.6875-0.1875 1.0625 (   545 PWs)   bands (ev):

    -4.7719  -4.6560  -4.4074  -4.3251  -4.2066   4.1731   9.5704  11.8961
    13.3252  20.4282  22.3436

          k = 0.5625-0.0625 0.9375 (   535 PWs)   bands (ev):

    -4.6289  -4.4343  -4.3587  -4.3290  -4.1310   4.9169   9.6602  10.5943
    12.3753  22.0523  24.0843

          k = 0.4375 0.0625 0.8125 (   543 PWs)   bands (ev):

    -4.6717  -4.5649  -4.4928  -4.3729  -4.1859   4.4301   9.4873  11.1326
    13.2845  21.8581  23.9383

          k =-0.1875-1.0625 0.1875 (   543 PWs)   bands (ev):

    -4.8259  -4.5027  -4.3265  -4.2901  -4.2779   4.8101   8.8410  11.2811
    14.1918  18.4422  21.9842

          k =-0.3125-0.9375 0.0625 (   541 PWs)   bands (ev):

    -4.7649  -4.5440  -4.3701  -4.3020  -4.1477   4.8721   9.0791  11.3858
    12.8083  20.2830  22.2085

          k =-0.1875-0.8125 0.1875 (   542 PWs)   bands (ev):

    -4.8798  -4.5969  -4.3056  -4.2753  -4.1590   4.0525   9.4106  12.0392
    14.4354  18.6292  22.1297

          k =-0.3125 0.3125 0.3125 (   549 PWs)   bands (ev):

    -4.7407  -4.7407  -4.6334  -4.3432  -4.3432   1.5303  10.5843  17.6717
    17.6717  21.3020  23.1768

          k =-0.4375 0.4375 0.1875 (   544 PWs)   bands (ev):

    -4.6911  -4.6428  -4.5486  -4.3030  -4.2995   2.3041   9.7409  14.8464
    17.6261  21.2871  23.1117

          k = 0.4375-0.4375 1.0625 (   542 PWs)   bands (ev):

    -4.7229  -4.5044  -4.4982  -4.3237  -4.2887   3.4888   9.5957  11.6155
    16.3495  19.9368  25.8173

          k = 0.3125-0.3125 0.9375 (   541 PWs)   bands (ev):

    -4.7192  -4.4448  -4.4353  -4.3367  -4.2676   4.5279   9.2162  10.4862
    15.1101  19.0546  25.6801

          k =-0.3125 0.5625 0.3125 (   540 PWs)   bands (ev):

    -4.6811  -4.5641  -4.4986  -4.2822  -4.2311   2.8326   8.7823  15.7138
    16.2628  20.3218  23.9290

          k = 0.5625-0.3125 1.1875 (   546 PWs)   bands (ev):

    -4.7369  -4.6447  -4.5038  -4.3768  -4.2541   3.7318   8.6177  13.0595
    15.1268  20.9501  23.4716

          k = 0.4375-0.1875 1.0625 (   540 PWs)   bands (ev):

    -4.6996  -4.4984  -4.3831  -4.3501  -4.2215   4.6468   9.4127  10.5707
    13.6404  20.9306  25.1781

          k =-0.3125-1.1875 0.3125 (   544 PWs)   bands (ev):

    -4.7477  -4.5271  -4.4535  -4.3718  -4.2790   4.2065   8.4807  12.1000
    15.3119  19.2384  25.7171

          k =-0.4375 0.4375 0.4375 (   556 PWs)   bands (ev):

    -4.7671  -4.7671  -4.7480  -4.3778  -4.3778   3.0808   7.7278  17.2415
    17.2415  21.4534  22.0841

          k = 0.4375-0.4375 1.3125 (   550 PWs)   bands (ev):

    -4.7164  -4.6595  -4.6439  -4.3926  -4.3034   3.6131   7.5868  14.9968
    16.6792  20.4967  23.4262

     the Fermi energy is    11.5990 ev

!    total energy              =    -118.68440650 Ry
     estimated scf accuracy    <          6.8E-10 Ry
     smearing contrib. (-TS)   =      -0.03540009 Ry
     internal energy E=F+TS    =    -118.64900641 Ry

     The total energy is F=E-TS. E is the sum of the following terms:
     one-electron contribution =     -30.97213858 Ry
     hartree contribution      =      24.31868636 Ry
     xc contribution           =     -14.55697694 Ry
     ewald contribution        =     -97.43857725 Ry

     convergence has been achieved in   6 iterations

     Writing output data file /home/fgoudreault/Workspace/abisuite/abisuite/unittests/test_workflows/test_files/qe_Pb/gs_ecut_convergence/ecutwfc/ecutwfc_30/run/output_data/ecutwfc_30.save/

     init_run     :      0.42s CPU      0.47s WALL (       1 calls)
     electrons    :     14.13s CPU     18.30s WALL (       1 calls)

     Called by init_run:
     wfcinit      :      0.32s CPU      0.36s WALL (       1 calls)
     potinit      :      0.04s CPU      0.04s WALL (       1 calls)
     hinit0       :      0.06s CPU      0.06s WALL (       1 calls)

     Called by electrons:
     c_bands      :     13.58s CPU     17.59s WALL (       7 calls)
     sum_band     :      0.48s CPU      0.58s WALL (       7 calls)
     v_of_rho     :      0.01s CPU      0.01s WALL (       7 calls)
     mix_rho      :      0.00s CPU      0.01s WALL (       7 calls)

     Called by c_bands:
     init_us_2    :      0.06s CPU      0.05s WALL (     225 calls)
     cegterg      :      9.07s CPU     11.83s WALL (     105 calls)

     Called by *egterg:
     cdiaghg      :      0.50s CPU      0.71s WALL (     397 calls)
     h_psi        :      7.58s CPU      9.72s WALL (     427 calls)
     g_psi        :      0.01s CPU      0.01s WALL (     307 calls)

     Called by h_psi:
     h_psi:calbec :      1.85s CPU      3.09s WALL (     427 calls)
     vloc_psi     :      5.52s CPU      6.29s WALL (     427 calls)
     add_vuspsi   :      0.20s CPU      0.33s WALL (     427 calls)

     General routines
     calbec       :      1.85s CPU      3.09s WALL (     427 calls)
     fft          :      0.01s CPU      0.01s WALL (      21 calls)
     ffts         :      0.00s CPU      0.00s WALL (       7 calls)
     fftw         :      5.40s CPU      6.15s WALL (    7241 calls)

     Parallel routines

     PWSCF        :     14.88s CPU     19.09s WALL


   This run was terminated on:   8:48: 5  20Apr2021            

=------------------------------------------------------------------------------=
   JOB DONE.
=------------------------------------------------------------------------------=
