
     Program PHONON v.6.7GPU starts on 22Feb2021 at 10: 7:49 

     This program is part of the open-source Quantum ESPRESSO suite
     for quantum simulation of materials; please cite
         "P. Giannozzi et al., J. Phys.:Condens. Matter 21 395502 (2009);
         "P. Giannozzi et al., J. Phys.:Condens. Matter 29 465901 (2017);
         "P. Giannozzi et al., J. Chem. Phys. 152 154105 (2020);
          URL http://www.quantum-espresso.org", 
     in publications or presentations arising from this work. More details at
     http://www.quantum-espresso.org/quote

     Parallel version (MPI), running on     4 processors

     MPI processes distributed on     1 nodes
     K-points division:     npool     =       4
     Reading input from /home/fgoudreault/Workspace/abisuite/abisuite/unittests/test_workflows/test_files/qe_Pb/phonon_dispersion_qgrid_convergence/qgrid_2_2_2/phonons_runs/ph_q1/ph_q1.in

     Reading xml data from directory:

     /home/fgoudreault/Workspace/abisuite/abisuite/unittests/test_workflows/test_files/qe_Pb/phonon_dispersion_qgrid_convergence/qgrid_2_2_2/phonons_runs/ph_q1/run/output_data/ph_q1.save/

     IMPORTANT: XC functional enforced from input :
     Exchange-correlation= PZ
                           (   1   1   0   0   0   0   0)
     Any further DFT definition will be discarded
     Please, verify this is what you really want


     G-vector sticks info
     --------------------
     sticks:   dense  smooth     PW     G-vecs:    dense   smooth      PW
     Sum         583     583    187                 9185     9185    1687

     Using Slab Decomposition

     Reading collected, re-writing distributed wavefunctions


     Dynamical matrices for ( 2, 2, 2)  uniform grid of q-points
     (   3 q-points):
       N         xq(1)         xq(2)         xq(3) 
       1   0.000000000   0.000000000   0.000000000
       2   0.500000000  -0.500000000   0.500000000
       3   0.000000000  -1.000000000   0.000000000

     Saving dvscf to file. Distribute only q points, not irreducible represetations.

     Calculation of q =    0.0000000   0.0000000   0.0000000

     ph_q1                                                                      

     bravais-lattice index     =            2
     lattice parameter (alat)  =       9.1347  a.u.
     unit-cell volume          =     190.5561 (a.u.)^3
     number of atoms/cell      =            1
     number of atomic types    =            1
     kinetic-energy cut-off    =      50.0000  Ry
     charge density cut-off    =     200.0000  Ry
     convergence threshold     =      1.0E-12
     beta                      =       0.7000
     number of iterations used =            4
     Exchange-correlation= PZ
                           (   1   1   0   0   0   0   0)


     celldm(1)=    9.13470  celldm(2)=    0.00000  celldm(3)=    0.00000
     celldm(4)=    0.00000  celldm(5)=    0.00000  celldm(6)=    0.00000

     crystal axes: (cart. coord. in units of alat)
               a(1) = ( -0.5000  0.0000  0.5000 )  
               a(2) = (  0.0000  0.5000  0.5000 )  
               a(3) = ( -0.5000  0.5000  0.0000 )  

     reciprocal axes: (cart. coord. in units 2 pi/alat)
               b(1) = ( -1.0000 -1.0000  1.0000 )  
               b(2) = (  1.0000  1.0000  1.0000 )  
               b(3) = ( -1.0000  1.0000 -1.0000 )  


     Atoms inside the unit cell: 

     Cartesian axes

     site n.  atom      mass           positions (alat units)
        1     Pb 207.2000   tau(    1) = (    0.00000    0.00000    0.00000  )

     Computing dynamical matrix for 
                    q = (   0.0000000   0.0000000   0.0000000 )

     49 Sym.Ops. (with q -> -q+G )


     G cutoff =  422.7259  (   9185 G-vectors)     FFT grid: ( 30, 30, 30)

     number of k points=    60  Gaussian smearing, width (Ry)=  0.1000

     PseudoPot. # 1 for Pb read from file:
     /home/fgoudreault/Workspace/abisuite/abisuite/unittests/test_workflows/test_files/pseudos/pb_s.UPF
     MD5 check sum: 7774f596943a2055f0d8d19eea6f2ae8
     Pseudo is Norm-conserving, Zval = 14.0
     Generated using "atomic" code by A. Dal Corso  (Quantum ESPRESSO distribution)
     Using radial grid of 1281 points,  2 beta functions with: 
                l(1) =   2
                l(2) =   1

     Mode symmetry, O_h (m-3m)  point group:


     Atomic displacements:
     There are    1 irreducible representations

     Representation     1      3 modes -  To be done



     Alpha used in Ewald sum =   2.0000
     PHONON       :      0.67s CPU      0.74s WALL



     Representation #   1 modes #   1   2   3

     Self-consistent Calculation

     Pert. #  1: Fermi energy shift (Ry) =    -4.9631E-24    -3.4481E-37
     Pert. #  2: Fermi energy shift (Ry) =     9.6504E-25     2.3510E-37
     Pert. #  3: Fermi energy shift (Ry) =    -6.8932E-25     2.9779E-37

      iter #   1 total cpu time :    28.4 secs   av.it.:   7.8
      thresh= 1.000E-02 alpha_mix =  0.700 |ddv_scf|^2 =  7.066E-06

     Pert. #  1: Fermi energy shift (Ry) =    -5.5145E-25    -1.3714E-38
     Pert. #  2: Fermi energy shift (Ry) =    -2.7573E-25     9.7958E-40
     Pert. #  3: Fermi energy shift (Ry) =    -2.7573E-25    -3.9183E-39

      iter #   2 total cpu time :    63.0 secs   av.it.:  11.9
      thresh= 2.658E-04 alpha_mix =  0.700 |ddv_scf|^2 =  1.805E-06

     Pert. #  1: Fermi energy shift (Ry) =    -1.3786E-24    -2.9387E-39
     Pert. #  2: Fermi energy shift (Ry) =    -2.7573E-25    -5.3877E-39
     Pert. #  3: Fermi energy shift (Ry) =     3.0330E-24    -2.4489E-39

      iter #   3 total cpu time :    96.0 secs   av.it.:  11.4
      thresh= 1.343E-04 alpha_mix =  0.700 |ddv_scf|^2 =  1.476E-10

     Pert. #  1: Fermi energy shift (Ry) =     0.0000E+00     1.2245E-40
     Pert. #  2: Fermi energy shift (Ry) =    -1.3786E-25     2.1428E-40
     Pert. #  3: Fermi energy shift (Ry) =     0.0000E+00     6.1224E-40

      iter #   4 total cpu time :   133.1 secs   av.it.:  11.6
      thresh= 1.215E-06 alpha_mix =  0.700 |ddv_scf|^2 =  1.855E-12

     Pert. #  1: Fermi energy shift (Ry) =    -2.7573E-25     4.8979E-40
     Pert. #  2: Fermi energy shift (Ry) =     6.8932E-25     1.5306E-40
     Pert. #  3: Fermi energy shift (Ry) =    -1.3786E-24     1.2245E-40

      iter #   5 total cpu time :   166.5 secs   av.it.:  10.5
      thresh= 1.362E-07 alpha_mix =  0.700 |ddv_scf|^2 =  7.169E-14

     End of self-consistent calculation

     Convergence has been achieved 

     Number of q in the star =    1
     List of q in the star:
          1   0.000000000   0.000000000   0.000000000

     Diagonalizing the dynamical matrix

     q = (    0.000000000   0.000000000   0.000000000 ) 

 **************************************************************************
     freq (    1) =       0.612269 [THz] =      20.423097 [cm-1]
     freq (    2) =       0.612269 [THz] =      20.423097 [cm-1]
     freq (    3) =       0.612269 [THz] =      20.423097 [cm-1]
 **************************************************************************

     Mode symmetry, O_h (m-3m)  point group:

     freq (   1-   3) =         20.4  [cm-1]   --> T_1u G_15  G_4- I  

     PHONON       :   2m11.74s CPU   2m46.92s WALL

     INITIALIZATION: 
     phq_setup    :      0.00s CPU      0.00s WALL (       1 calls)
     phq_init     :      0.46s CPU      0.51s WALL (       1 calls)

     phq_init     :      0.46s CPU      0.51s WALL (       1 calls)
     init_vloc    :      0.00s CPU      0.00s WALL (       1 calls)
     init_us_1    :      0.03s CPU      0.03s WALL (       1 calls)

     DYNAMICAL MATRIX:
     dynmat0      :      0.22s CPU      0.18s WALL (       1 calls)
     phqscf       :    131.04s CPU    166.11s WALL (       1 calls)
     dynmatrix    :      0.02s CPU      0.01s WALL (       1 calls)

     phqscf       :    131.04s CPU    166.11s WALL (       1 calls)
     solve_linter :    130.75s CPU    165.78s WALL (       1 calls)
     drhodv       :      0.26s CPU      0.31s WALL (       1 calls)

     dynmat0      :      0.22s CPU      0.18s WALL (       1 calls)
     dynmat_us    :      0.18s CPU      0.15s WALL (       1 calls)
     d2ionq       :      0.00s CPU      0.00s WALL (       1 calls)

     dynmat_us    :      0.18s CPU      0.15s WALL (       1 calls)

     phqscf       :    131.04s CPU    166.11s WALL (       1 calls)
     solve_linter :    130.75s CPU    165.78s WALL (       1 calls)

     solve_linter :    130.75s CPU    165.78s WALL (       1 calls)
     dvqpsi_us    :      2.87s CPU      3.73s WALL (      45 calls)
     ortho        :      1.46s CPU      2.27s WALL (     225 calls)
     cgsolve      :    100.01s CPU    119.32s WALL (     225 calls)
     incdrhoscf   :      7.62s CPU      8.86s WALL (     225 calls)
     vpsifft      :      6.41s CPU      7.59s WALL (     180 calls)
     dv_of_drho   :      0.05s CPU      0.06s WALL (      15 calls)
     mix_pot      :      0.04s CPU      0.07s WALL (       5 calls)
     ef_shift     :      0.21s CPU      0.30s WALL (       6 calls)
     localdos     :      0.41s CPU      0.56s WALL (       1 calls)
     psymdvscf    :      1.60s CPU      1.60s WALL (       5 calls)

     dvqpsi_us    :      2.87s CPU      3.73s WALL (      45 calls)
     dvqpsi_us_on :      0.47s CPU      0.57s WALL (      45 calls)

     cgsolve      :    100.01s CPU    119.32s WALL (     225 calls)
     ch_psi       :     99.55s CPU    118.92s WALL (    2891 calls)

     ch_psi       :     99.55s CPU    118.92s WALL (    2891 calls)
     h_psi        :     94.99s CPU    113.18s WALL (    2891 calls)
     last         :      4.39s CPU      5.61s WALL (    2891 calls)

     h_psi        :     94.99s CPU    113.18s WALL (    2891 calls)
     add_vuspsi   :      1.60s CPU      2.40s WALL (    2891 calls)

     incdrhoscf   :      7.62s CPU      8.86s WALL (     225 calls)


      General routines
     calbec       :     17.53s CPU     27.16s WALL (    6127 calls)
     fft          :      0.08s CPU      0.10s WALL (      79 calls)
     ffts         :      0.34s CPU      0.38s WALL (     154 calls)
     fftw         :     86.23s CPU     96.38s WALL (   42816 calls)
     davcio       :      0.20s CPU      0.25s WALL (     944 calls)
     write_rec    :      0.09s CPU      0.08s WALL (       6 calls)


     PHONON       :   2m11.74s CPU   2m46.92s WALL


   This run was terminated on:  10:10:36  22Feb2021            

=------------------------------------------------------------------------------=
   JOB DONE.
=------------------------------------------------------------------------------=
